x,y
-1.3504530074075134,0.5992445231247232
0.0330925696161072,0.671327860825804
0.308363641654808,0.6879722394188456
1.7059605525218269,0.7548749617130085
-0.3158036201086841,0.6508778742761182
0.12672702760288584,0.6772785039589134
-0.5018938960954459,0.6455593141641129
0.3658656075141105,0.6860486333269282
1.0924558242646856,0.7237673487095435
1.366406249142004,0.734894340488892
1.194431862507405,0.7311269072472532
-0.4977382853743924,0.6446239525799895
-0.05445504459637149,0.6659433555151127
-0.39679193069906915,0.6495800219238127
0.2827765948474487,0.6864372634776653
0.9236581024131223,0.716500470260776
-0.20187268826450352,0.6575893338204866
1.4830762674843088,0.7430482839240763
-0.22221437539581604,0.6582232706564315
2.096229994218393,0.7657490574407115
-0.6798716925855997,0.6368100492997234
-1.6888935770117277,0.5779971106113606
-0.5919406323758101,0.6402849330985053
-0.7654206622026271,0.6288813855509255
-0.24143940100594746,0.6550324323763175
-0.12145568329253638,0.6639654149911137
-0.05373058375655037,0.6682414790263074
2.0662138323315835,0.768845088933172
1.914675535446117,0.759988703631914
0.04098692369777187,0.6747110514995908
-0.6485069265006344,0.6374457812297379
1.5502428007600926,0.7484131467741324
-1.0001101466612514,0.6135808563865
2.3997286102367186,0.7836077333119902
1.8994611158903438,0.761341876916739
0.07997036396630462,0.6749211373115002
2.6236126039811274,0.791317003145455
-1.8150484547939534,0.5714882710100267
0.46487094733334366,0.6908668837432484
0.8959064852193962,0.7136856909973702
0.465146662727765,0.6960203226383196
0.9989150383173202,0.7203122859716327
-0.7057467631761442,0.6323829234215959
0.682649608387757,0.7042261039596059
1.0605367431799986,0.7269457045471109
0.24583623685601508,0.6785164101711618
-0.08606016623190643,0.6659018583715999
-0.7623148182859281,0.6260894723380095
-1.4093260317120484,0.5974183848832841
0.08464089023204618,0.6746877595884969
0.7825191777021305,0.7087258623239594
0.7206407702085906,0.7058223243736005
0.14202636027601695,0.6777663665800316
-0.5068729534309699,0.6428639810445149
-0.3943335403341326,0.65019155473607
0.927938141953158,0.7180571192882368
-0.3981491878445718,0.6485785847526507
1.6246668668154802,0.7532614667928448
-0.26270608865670564,0.6562356929978939
0.23444868793190274,0.6869555235768523
-0.13310969760744992,0.6594610559960477
-0.22326694017476678,0.6578865120063013
-2.4041363464111325,0.5374648232166869
1.4876591600790656,0.7405752464640224
-0.16896268214371074,0.6654879976935785
-0.3836375745669785,0.6497594668783296
-0.6624416388865515,0.6361958819464915
0.5486917186361173,0.699774555362205
0.4156203224760089,0.6898475165056035
-0.43323297994825,0.6461173366826118
0.3030008325822352,0.6842685068106971
-0.7289857503022875,0.6348520980281581
0.8376629653210681,0.7108737263850353
-1.5624700312871456,0.5857149912150721
0.32931435698832645,0.6875191779050736
-1.1857370462504169,0.6040652683530501
-2.215659263362403,0.546663969741575
-1.9808213225896611,0.5620414089748231
-1.015879961781946,0.6171719354833807
0.6858171912501821,0.7035636434834217
0.7689479251916308,0.7091026538983137
0.2604908423763264,0.6841525116574302
0.4384695122699231,0.6950817815880936
-0.9763300126315138,0.617428314376102
-1.8892808401885712,0.5709487389030243
-0.391169557939155,0.6508851789601766
-0.8847493731025253,0.6239660384922217
-0.9030496097117147,0.6192468557343532
0.2139212504998668,0.6846524104612297
-0.010208230584544018,0.6700897418125129
1.96556077940382,0.760044899076885
-0.9714530977810717,0.6184895891932171
0.9466968326929991,0.7178443078906396
1.252970877515667,0.7353118241992768
0.6872727824747427,0.7040974399935862
3.3771785848020692,0.8170411243058999
-1.3318191812570739,0.598502911397312
0.09716477653272673,0.6758038907697782
1.435339216157674,0.7398865586052896
-1.1924868866736313,0.6059101840750601